$VAR801 = {
            '10.240.2.167' => {
                                'sysFanInserted' => {
                                                      '1.3.6.1.4.1.40418.7.100.1.12.1.2' => {
                                                                                              '1.3.6.1.4.1.40418.7.100.1.12.1.2.2' => 1,
                                                                                              '1.3.6.1.4.1.40418.7.100.1.12.1.2.1' => 1
                                                                                            }
                                                    },
                                'sysSoftwareVersion' => {
                                                          '1.3.6.1.4.1.40418.7.100.1.3' => {
                                                                                             '1.3.6.1.4.1.40418.7.100.1.3.0' => '7.0.3.5(R0102.0193)'
                                                                                           }
                                                        },
                                'showSwitchStartUpStatus' => {
                                                               '1.3.6.1.4.1.40418.7.100.1.16' => {
                                                                                                   '1.3.6.1.4.1.40418.7.100.1.16.0' => 2
                                                                                                 }
                                                             },
                                'ifInUcastPkts' => {
                                                     '1.3.6.1.2.1.2.2.1.11' => {
                                                                                 '1.3.6.1.2.1.2.2.1.11.4' => 1417380678,
                                                                                 '1.3.6.1.2.1.2.2.1.11.9' => 941865091,
                                                                                 '1.3.6.1.2.1.2.2.1.11.10' => 2564352537,
                                                                                 '1.3.6.1.2.1.2.2.1.11.15' => 3072886775,
                                                                                 '1.3.6.1.2.1.2.2.1.11.19' => 2416963281,
                                                                                 '1.3.6.1.2.1.2.2.1.11.22' => 2508735107,
                                                                                 '1.3.6.1.2.1.2.2.1.11.12' => 3720624314,
                                                                                 '1.3.6.1.2.1.2.2.1.11.11' => 2022065922,
                                                                                 '1.3.6.1.2.1.2.2.1.11.16' => 2124493033,
                                                                                 '1.3.6.1.2.1.2.2.1.11.14' => 3184316112,
                                                                                 '1.3.6.1.2.1.2.2.1.11.5' => 1343549809,
                                                                                 '1.3.6.1.2.1.2.2.1.11.1' => 2582433919,
                                                                                 '1.3.6.1.2.1.2.2.1.11.23' => 4127984214,
                                                                                 '1.3.6.1.2.1.2.2.1.11.14999' => 0,
                                                                                 '1.3.6.1.2.1.2.2.1.11.28' => 0,
                                                                                 '1.3.6.1.2.1.2.2.1.11.21' => 329480955,
                                                                                 '1.3.6.1.2.1.2.2.1.11.65' => 2388475221,
                                                                                 '1.3.6.1.2.1.2.2.1.11.7' => 479770548,
                                                                                 '1.3.6.1.2.1.2.2.1.11.27' => 0,
                                                                                 '1.3.6.1.2.1.2.2.1.11.25' => 2388475221,
                                                                                 '1.3.6.1.2.1.2.2.1.11.6' => 2478144689,
                                                                                 '1.3.6.1.2.1.2.2.1.11.13' => 4030418971,
                                                                                 '1.3.6.1.2.1.2.2.1.11.20' => 173134381,
                                                                                 '1.3.6.1.2.1.2.2.1.11.8' => 3296080358,
                                                                                 '1.3.6.1.2.1.2.2.1.11.26' => 0,
                                                                                 '1.3.6.1.2.1.2.2.1.11.18' => 1484338065,
                                                                                 '1.3.6.1.2.1.2.2.1.11.3' => 2209998245,
                                                                                 '1.3.6.1.2.1.2.2.1.11.2' => 3840866770,
                                                                                 '1.3.6.1.2.1.2.2.1.11.24' => 302267786,
                                                                                 '1.3.6.1.2.1.2.2.1.11.17' => 1788775111
                                                                               }
                                                   },
                                'ifOutErrors' => {
                                                   '1.3.6.1.2.1.2.2.1.20' => {
                                                                               '1.3.6.1.2.1.2.2.1.20.14999' => 0,
                                                                               '1.3.6.1.2.1.2.2.1.20.15' => 0,
                                                                               '1.3.6.1.2.1.2.2.1.20.27' => 0,
                                                                               '1.3.6.1.2.1.2.2.1.20.65' => 0,
                                                                               '1.3.6.1.2.1.2.2.1.20.2' => 0,
                                                                               '1.3.6.1.2.1.2.2.1.20.26' => 0,
                                                                               '1.3.6.1.2.1.2.2.1.20.5' => 0,
                                                                               '1.3.6.1.2.1.2.2.1.20.10' => 0,
                                                                               '1.3.6.1.2.1.2.2.1.20.6' => 0,
                                                                               '1.3.6.1.2.1.2.2.1.20.7' => 0,
                                                                               '1.3.6.1.2.1.2.2.1.20.16' => 0,
                                                                               '1.3.6.1.2.1.2.2.1.20.14' => 0,
                                                                               '1.3.6.1.2.1.2.2.1.20.25' => 0,
                                                                               '1.3.6.1.2.1.2.2.1.20.17' => 0,
                                                                               '1.3.6.1.2.1.2.2.1.20.28' => 0,
                                                                               '1.3.6.1.2.1.2.2.1.20.22' => 0,
                                                                               '1.3.6.1.2.1.2.2.1.20.4' => 0,
                                                                               '1.3.6.1.2.1.2.2.1.20.3' => 0,
                                                                               '1.3.6.1.2.1.2.2.1.20.19' => 0,
                                                                               '1.3.6.1.2.1.2.2.1.20.20' => 0,
                                                                               '1.3.6.1.2.1.2.2.1.20.13' => 0,
                                                                               '1.3.6.1.2.1.2.2.1.20.1' => 0,
                                                                               '1.3.6.1.2.1.2.2.1.20.23' => 0,
                                                                               '1.3.6.1.2.1.2.2.1.20.9' => 0,
                                                                               '1.3.6.1.2.1.2.2.1.20.21' => 0,
                                                                               '1.3.6.1.2.1.2.2.1.20.18' => 0,
                                                                               '1.3.6.1.2.1.2.2.1.20.12' => 0,
                                                                               '1.3.6.1.2.1.2.2.1.20.11' => 0,
                                                                               '1.3.6.1.2.1.2.2.1.20.8' => 0,
                                                                               '1.3.6.1.2.1.2.2.1.20.24' => 0
                                                                             }
                                                 },
                                'switchMemoryUsage' => {
                                                         '1.3.6.1.4.1.40418.7.100.1.11.11' => {
                                                                                                '1.3.6.1.4.1.40418.7.100.1.11.11.0' => 45
                                                                                              }
                                                       },
                                'ifInBroadcastPkts' => {
                                                         '1.3.6.1.2.1.31.1.1.1.3' => {
                                                                                       '1.3.6.1.2.1.31.1.1.1.3.3' => 8142307,
                                                                                       '1.3.6.1.2.1.31.1.1.1.3.14999' => 0,
                                                                                       '1.3.6.1.2.1.31.1.1.1.3.11' => 22300419,
                                                                                       '1.3.6.1.2.1.31.1.1.1.3.6' => 8330448,
                                                                                       '1.3.6.1.2.1.31.1.1.1.3.22' => 9322394,
                                                                                       '1.3.6.1.2.1.31.1.1.1.3.4' => 3363286,
                                                                                       '1.3.6.1.2.1.31.1.1.1.3.21' => 7271894,
                                                                                       '1.3.6.1.2.1.31.1.1.1.3.12' => 19727319,
                                                                                       '1.3.6.1.2.1.31.1.1.1.3.23' => 4530899,
                                                                                       '1.3.6.1.2.1.31.1.1.1.3.5' => 16596394,
                                                                                       '1.3.6.1.2.1.31.1.1.1.3.26' => 0,
                                                                                       '1.3.6.1.2.1.31.1.1.1.3.65' => 500871598,
                                                                                       '1.3.6.1.2.1.31.1.1.1.3.9' => 31635063,
                                                                                       '1.3.6.1.2.1.31.1.1.1.3.14' => 5902020,
                                                                                       '1.3.6.1.2.1.31.1.1.1.3.1' => 2472690,
                                                                                       '1.3.6.1.2.1.31.1.1.1.3.17' => 5866497,
                                                                                       '1.3.6.1.2.1.31.1.1.1.3.15' => 1322375,
                                                                                       '1.3.6.1.2.1.31.1.1.1.3.28' => 0,
                                                                                       '1.3.6.1.2.1.31.1.1.1.3.8' => 6774838,
                                                                                       '1.3.6.1.2.1.31.1.1.1.3.10' => 2830910,
                                                                                       '1.3.6.1.2.1.31.1.1.1.3.20' => 9033866,
                                                                                       '1.3.6.1.2.1.31.1.1.1.3.27' => 0,
                                                                                       '1.3.6.1.2.1.31.1.1.1.3.19' => 3744616,
                                                                                       '1.3.6.1.2.1.31.1.1.1.3.25' => 500871598,
                                                                                       '1.3.6.1.2.1.31.1.1.1.3.2' => 3775839,
                                                                                       '1.3.6.1.2.1.31.1.1.1.3.7' => 888903,
                                                                                       '1.3.6.1.2.1.31.1.1.1.3.13' => 6304822,
                                                                                       '1.3.6.1.2.1.31.1.1.1.3.16' => 11225550,
                                                                                       '1.3.6.1.2.1.31.1.1.1.3.18' => 2378826,
                                                                                       '1.3.6.1.2.1.31.1.1.1.3.24' => 36693780
                                                                                     }
                                                       },
                                'switchCpuUsage' => {
                                                      '1.3.6.1.4.1.40418.7.100.1.11.10' => {
                                                                                             '1.3.6.1.4.1.40418.7.100.1.11.10.0' => 7
                                                                                           }
                                                    },
                                'sysFanStatus' => {
                                                    '1.3.6.1.4.1.40418.7.100.1.12.1.3' => {
                                                                                            '1.3.6.1.4.1.40418.7.100.1.12.1.3.1' => 0,
                                                                                            '1.3.6.1.4.1.40418.7.100.1.12.1.3.2' => 0
                                                                                          }
                                                  },
                                'sysObjectID' => {
                                                   '1.3.6.1.2.1.1.2' => {
                                                                          '1.3.6.1.2.1.1.2.0' => '1.3.6.1.4.1.40418.7.234'
                                                                        }
                                                 },
                                'ifInNUcastPkts' => {
                                                      '1.3.6.1.2.1.2.2.1.12' => {
                                                                                  '1.3.6.1.2.1.2.2.1.12.23' => 21666232,
                                                                                  '1.3.6.1.2.1.2.2.1.12.25' => 2808860109,
                                                                                  '1.3.6.1.2.1.2.2.1.12.10' => 3448638,
                                                                                  '1.3.6.1.2.1.2.2.1.12.18' => 19394531,
                                                                                  '1.3.6.1.2.1.2.2.1.12.15' => 8122130,
                                                                                  '1.3.6.1.2.1.2.2.1.12.11' => 31268187,
                                                                                  '1.3.6.1.2.1.2.2.1.12.19' => 18133704,
                                                                                  '1.3.6.1.2.1.2.2.1.12.14999' => 0,
                                                                                  '1.3.6.1.2.1.2.2.1.12.12' => 30102464,
                                                                                  '1.3.6.1.2.1.2.2.1.12.21' => 24981077,
                                                                                  '1.3.6.1.2.1.2.2.1.12.8' => 27908824,
                                                                                  '1.3.6.1.2.1.2.2.1.12.16' => 16312805,
                                                                                  '1.3.6.1.2.1.2.2.1.12.6' => 15548519,
                                                                                  '1.3.6.1.2.1.2.2.1.12.65' => 2808860109,
                                                                                  '1.3.6.1.2.1.2.2.1.12.1' => 5516722,
                                                                                  '1.3.6.1.2.1.2.2.1.12.26' => 0,
                                                                                  '1.3.6.1.2.1.2.2.1.12.14' => 32837408,
                                                                                  '1.3.6.1.2.1.2.2.1.12.7' => 4746680,
                                                                                  '1.3.6.1.2.1.2.2.1.12.2' => 15652446,
                                                                                  '1.3.6.1.2.1.2.2.1.12.13' => 14092948,
                                                                                  '1.3.6.1.2.1.2.2.1.12.24' => 149419993,
                                                                                  '1.3.6.1.2.1.2.2.1.12.5' => 82225957,
                                                                                  '1.3.6.1.2.1.2.2.1.12.27' => 0,
                                                                                  '1.3.6.1.2.1.2.2.1.12.22' => 21498576,
                                                                                  '1.3.6.1.2.1.2.2.1.12.28' => 0,
                                                                                  '1.3.6.1.2.1.2.2.1.12.9' => 85571641,
                                                                                  '1.3.6.1.2.1.2.2.1.12.17' => 9963671,
                                                                                  '1.3.6.1.2.1.2.2.1.12.3' => 57243547,
                                                                                  '1.3.6.1.2.1.2.2.1.12.4' => 38153189,
                                                                                  '1.3.6.1.2.1.2.2.1.12.20' => 30046785
                                                                                }
                                                    },
                                'vlanFCVlanID' => {
                                                    '1.3.6.1.4.1.40418.7.100.5.4.1.1' => {
                                                                                           '1.3.6.1.4.1.40418.7.100.5.4.1.1.3109' => 3109,
                                                                                           '1.3.6.1.4.1.40418.7.100.5.4.1.1.3020' => 3020,
                                                                                           '1.3.6.1.4.1.40418.7.100.5.4.1.1.3304' => 3304,
                                                                                           '1.3.6.1.4.1.40418.7.100.5.4.1.1.1177' => 1177,
                                                                                           '1.3.6.1.4.1.40418.7.100.5.4.1.1.1620' => 1620,
                                                                                           '1.3.6.1.4.1.40418.7.100.5.4.1.1.3025' => 3025,
                                                                                           '1.3.6.1.4.1.40418.7.100.5.4.1.1.1145' => 1145,
                                                                                           '1.3.6.1.4.1.40418.7.100.5.4.1.1.3599' => 3599,
                                                                                           '1.3.6.1.4.1.40418.7.100.5.4.1.1.3174' => 3174,
                                                                                           '1.3.6.1.4.1.40418.7.100.5.4.1.1.1139' => 1139,
                                                                                           '1.3.6.1.4.1.40418.7.100.5.4.1.1.3093' => 3093,
                                                                                           '1.3.6.1.4.1.40418.7.100.5.4.1.1.1271' => 1271,
                                                                                           '1.3.6.1.4.1.40418.7.100.5.4.1.1.3045' => 3045,
                                                                                           '1.3.6.1.4.1.40418.7.100.5.4.1.1.1612' => 1612,
                                                                                           '1.3.6.1.4.1.40418.7.100.5.4.1.1.1609' => 1609,
                                                                                           '1.3.6.1.4.1.40418.7.100.5.4.1.1.1276' => 1276,
                                                                                           '1.3.6.1.4.1.40418.7.100.5.4.1.1.3500' => 3500,
                                                                                           '1.3.6.1.4.1.40418.7.100.5.4.1.1.3026' => 3026,
                                                                                           '1.3.6.1.4.1.40418.7.100.5.4.1.1.1665' => 1665,
                                                                                           '1.3.6.1.4.1.40418.7.100.5.4.1.1.1124' => 1124,
                                                                                           '1.3.6.1.4.1.40418.7.100.5.4.1.1.1606' => 1606,
                                                                                           '1.3.6.1.4.1.40418.7.100.5.4.1.1.3017' => 3017,
                                                                                           '1.3.6.1.4.1.40418.7.100.5.4.1.1.3028' => 3028,
                                                                                           '1.3.6.1.4.1.40418.7.100.5.4.1.1.1629' => 1629,
                                                                                           '1.3.6.1.4.1.40418.7.100.5.4.1.1.1291' => 1291,
                                                                                           '1.3.6.1.4.1.40418.7.100.5.4.1.1.1272' => 1272,
                                                                                           '1.3.6.1.4.1.40418.7.100.5.4.1.1.3047' => 3047,
                                                                                           '1.3.6.1.4.1.40418.7.100.5.4.1.1.1674' => 1674,
                                                                                           '1.3.6.1.4.1.40418.7.100.5.4.1.1.3037' => 3037,
                                                                                           '1.3.6.1.4.1.40418.7.100.5.4.1.1.3035' => 3035,
                                                                                           '1.3.6.1.4.1.40418.7.100.5.4.1.1.1108' => 1108,
                                                                                           '1.3.6.1.4.1.40418.7.100.5.4.1.1.1605' => 1605,
                                                                                           '1.3.6.1.4.1.40418.7.100.5.4.1.1.1646' => 1646,
                                                                                           '1.3.6.1.4.1.40418.7.100.5.4.1.1.1633' => 1633,
                                                                                           '1.3.6.1.4.1.40418.7.100.5.4.1.1.1608' => 1608,
                                                                                           '1.3.6.1.4.1.40418.7.100.5.4.1.1.1136' => 1136,
                                                                                           '1.3.6.1.4.1.40418.7.100.5.4.1.1.3036' => 3036,
                                                                                           '1.3.6.1.4.1.40418.7.100.5.4.1.1.1604' => 1604,
                                                                                           '1.3.6.1.4.1.40418.7.100.5.4.1.1.1618' => 1618,
                                                                                           '1.3.6.1.4.1.40418.7.100.5.4.1.1.3074' => 3074,
                                                                                           '1.3.6.1.4.1.40418.7.100.5.4.1.1.3135' => 3135,
                                                                                           '1.3.6.1.4.1.40418.7.100.5.4.1.1.3188' => 3188,
                                                                                           '1.3.6.1.4.1.40418.7.100.5.4.1.1.3508' => 3508,
                                                                                           '1.3.6.1.4.1.40418.7.100.5.4.1.1.3999' => 3999,
                                                                                           '1.3.6.1.4.1.40418.7.100.5.4.1.1.3063' => 3063,
                                                                                           '1.3.6.1.4.1.40418.7.100.5.4.1.1.1135' => 1135,
                                                                                           '1.3.6.1.4.1.40418.7.100.5.4.1.1.1631' => 1631,
                                                                                           '1.3.6.1.4.1.40418.7.100.5.4.1.1.3995' => 3995,
                                                                                           '1.3.6.1.4.1.40418.7.100.5.4.1.1.1434' => 1434,
                                                                                           '1.3.6.1.4.1.40418.7.100.5.4.1.1.1375' => 1375,
                                                                                           '1.3.6.1.4.1.40418.7.100.5.4.1.1.3034' => 3034,
                                                                                           '1.3.6.1.4.1.40418.7.100.5.4.1.1.3264' => 3264,
                                                                                           '1.3.6.1.4.1.40418.7.100.5.4.1.1.3131' => 3131,
                                                                                           '1.3.6.1.4.1.40418.7.100.5.4.1.1.3303' => 3303,
                                                                                           '1.3.6.1.4.1.40418.7.100.5.4.1.1.1634' => 1634,
                                                                                           '1.3.6.1.4.1.40418.7.100.5.4.1.1.1384' => 1384,
                                                                                           '1.3.6.1.4.1.40418.7.100.5.4.1.1.1321' => 1321,
                                                                                           '1.3.6.1.4.1.40418.7.100.5.4.1.1.1127' => 1127,
                                                                                           '1.3.6.1.4.1.40418.7.100.5.4.1.1.3501' => 3501,
                                                                                           '1.3.6.1.4.1.40418.7.100.5.4.1.1.3039' => 3039,
                                                                                           '1.3.6.1.4.1.40418.7.100.5.4.1.1.1105' => 1105,
                                                                                           '1.3.6.1.4.1.40418.7.100.5.4.1.1.1158' => 1158,
                                                                                           '1.3.6.1.4.1.40418.7.100.5.4.1.1.900' => 900,
                                                                                           '1.3.6.1.4.1.40418.7.100.5.4.1.1.3041' => 3041,
                                                                                           '1.3.6.1.4.1.40418.7.100.5.4.1.1.1273' => 1273,
                                                                                           '1.3.6.1.4.1.40418.7.100.5.4.1.1.3021' => 3021,
                                                                                           '1.3.6.1.4.1.40418.7.100.5.4.1.1.3996' => 3996,
                                                                                           '1.3.6.1.4.1.40418.7.100.5.4.1.1.3997' => 3997,
                                                                                           '1.3.6.1.4.1.40418.7.100.5.4.1.1.1' => 1,
                                                                                           '1.3.6.1.4.1.40418.7.100.5.4.1.1.1181' => 1181,
                                                                                           '1.3.6.1.4.1.40418.7.100.5.4.1.1.1619' => 1619,
                                                                                           '1.3.6.1.4.1.40418.7.100.5.4.1.1.3181' => 3181,
                                                                                           '1.3.6.1.4.1.40418.7.100.5.4.1.1.1328' => 1328,
                                                                                           '1.3.6.1.4.1.40418.7.100.5.4.1.1.3305' => 3305,
                                                                                           '1.3.6.1.4.1.40418.7.100.5.4.1.1.1168' => 1168,
                                                                                           '1.3.6.1.4.1.40418.7.100.5.4.1.1.1648' => 1648,
                                                                                           '1.3.6.1.4.1.40418.7.100.5.4.1.1.3122' => 3122,
                                                                                           '1.3.6.1.4.1.40418.7.100.5.4.1.1.1449' => 1449,
                                                                                           '1.3.6.1.4.1.40418.7.100.5.4.1.1.3040' => 3040,
                                                                                           '1.3.6.1.4.1.40418.7.100.5.4.1.1.3114' => 3114,
                                                                                           '1.3.6.1.4.1.40418.7.100.5.4.1.1.3534' => 3534,
                                                                                           '1.3.6.1.4.1.40418.7.100.5.4.1.1.1556' => 1556,
                                                                                           '1.3.6.1.4.1.40418.7.100.5.4.1.1.3116' => 3116,
                                                                                           '1.3.6.1.4.1.40418.7.100.5.4.1.1.3071' => 3071,
                                                                                           '1.3.6.1.4.1.40418.7.100.5.4.1.1.1147' => 1147
                                                                                         }
                                                  },
                                'ifOutUcastPkts' => {
                                                      '1.3.6.1.2.1.2.2.1.11' => {
                                                                                  '1.3.6.1.2.1.2.2.1.11.65' => 2388475221,
                                                                                  '1.3.6.1.2.1.2.2.1.11.27' => 0,
                                                                                  '1.3.6.1.2.1.2.2.1.11.7' => 479770548,
                                                                                  '1.3.6.1.2.1.2.2.1.11.21' => 329480955,
                                                                                  '1.3.6.1.2.1.2.2.1.11.14999' => 0,
                                                                                  '1.3.6.1.2.1.2.2.1.11.28' => 0,
                                                                                  '1.3.6.1.2.1.2.2.1.11.23' => 4127984214,
                                                                                  '1.3.6.1.2.1.2.2.1.11.18' => 1484338065,
                                                                                  '1.3.6.1.2.1.2.2.1.11.26' => 0,
                                                                                  '1.3.6.1.2.1.2.2.1.11.3' => 2209998245,
                                                                                  '1.3.6.1.2.1.2.2.1.11.24' => 302267786,
                                                                                  '1.3.6.1.2.1.2.2.1.11.2' => 3840866770,
                                                                                  '1.3.6.1.2.1.2.2.1.11.17' => 1788775111,
                                                                                  '1.3.6.1.2.1.2.2.1.11.13' => 4030418971,
                                                                                  '1.3.6.1.2.1.2.2.1.11.8' => 3296080358,
                                                                                  '1.3.6.1.2.1.2.2.1.11.20' => 173134381,
                                                                                  '1.3.6.1.2.1.2.2.1.11.6' => 2478144689,
                                                                                  '1.3.6.1.2.1.2.2.1.11.25' => 2388475221,
                                                                                  '1.3.6.1.2.1.2.2.1.11.12' => 3720624314,
                                                                                  '1.3.6.1.2.1.2.2.1.11.9' => 941865091,
                                                                                  '1.3.6.1.2.1.2.2.1.11.10' => 2564352537,
                                                                                  '1.3.6.1.2.1.2.2.1.11.15' => 3072886775,
                                                                                  '1.3.6.1.2.1.2.2.1.11.22' => 2508735107,
                                                                                  '1.3.6.1.2.1.2.2.1.11.19' => 2416963281,
                                                                                  '1.3.6.1.2.1.2.2.1.11.4' => 1417380678,
                                                                                  '1.3.6.1.2.1.2.2.1.11.1' => 2582433919,
                                                                                  '1.3.6.1.2.1.2.2.1.11.5' => 1343549809,
                                                                                  '1.3.6.1.2.1.2.2.1.11.14' => 3184316112,
                                                                                  '1.3.6.1.2.1.2.2.1.11.11' => 2022065922,
                                                                                  '1.3.6.1.2.1.2.2.1.11.16' => 2124493033
                                                                                }
                                                    },
                                'sysUpTime' => {
                                                 '1.3.6.1.2.1.1.3' => {
                                                                        '1.3.6.1.2.1.1.3.0' => '146 days, 20:14:30.00'
                                                                      }
                                               },
                                'ifOutMulticastPkts' => {
                                                          '1.3.6.1.2.1.31.1.1.1.4' => {
                                                                                        '1.3.6.1.2.1.31.1.1.1.4.3' => 196903230,
                                                                                        '1.3.6.1.2.1.31.1.1.1.4.16' => 405763479,
                                                                                        '1.3.6.1.2.1.31.1.1.1.4.11' => 2548994826,
                                                                                        '1.3.6.1.2.1.31.1.1.1.4.10' => 1252734545,
                                                                                        '1.3.6.1.2.1.31.1.1.1.4.24' => 202942107,
                                                                                        '1.3.6.1.2.1.31.1.1.1.4.14999' => 0,
                                                                                        '1.3.6.1.2.1.31.1.1.1.4.2' => 2538836447,
                                                                                        '1.3.6.1.2.1.31.1.1.1.4.4' => 3326505851,
                                                                                        '1.3.6.1.2.1.31.1.1.1.4.27' => 0,
                                                                                        '1.3.6.1.2.1.31.1.1.1.4.20' => 2479568411,
                                                                                        '1.3.6.1.2.1.31.1.1.1.4.13' => 1970138136,
                                                                                        '1.3.6.1.2.1.31.1.1.1.4.14' => 1608346897,
                                                                                        '1.3.6.1.2.1.31.1.1.1.4.9' => 2919360266,
                                                                                        '1.3.6.1.2.1.31.1.1.1.4.23' => 2029059194,
                                                                                        '1.3.6.1.2.1.31.1.1.1.4.17' => 3595580389,
                                                                                        '1.3.6.1.2.1.31.1.1.1.4.21' => 2388440965,
                                                                                        '1.3.6.1.2.1.31.1.1.1.4.22' => 4104114134,
                                                                                        '1.3.6.1.2.1.31.1.1.1.4.6' => 3485218070,
                                                                                        '1.3.6.1.2.1.31.1.1.1.4.1' => 259683621,
                                                                                        '1.3.6.1.2.1.31.1.1.1.4.5' => 1437716741,
                                                                                        '1.3.6.1.2.1.31.1.1.1.4.19' => 1448543661,
                                                                                        '1.3.6.1.2.1.31.1.1.1.4.8' => 37464699,
                                                                                        '1.3.6.1.2.1.31.1.1.1.4.25' => 504247500,
                                                                                        '1.3.6.1.2.1.31.1.1.1.4.15' => 747990416,
                                                                                        '1.3.6.1.2.1.31.1.1.1.4.28' => 0,
                                                                                        '1.3.6.1.2.1.31.1.1.1.4.65' => 504247500,
                                                                                        '1.3.6.1.2.1.31.1.1.1.4.7' => 686000993,
                                                                                        '1.3.6.1.2.1.31.1.1.1.4.18' => 4244931981,
                                                                                        '1.3.6.1.2.1.31.1.1.1.4.26' => 0,
                                                                                        '1.3.6.1.2.1.31.1.1.1.4.12' => 2080545909
                                                                                      }
                                                        },
                                'switchCPUFiveMinuteIdle' => {
                                                               '1.3.6.1.4.1.40418.7.100.1.11.4' => {
                                                                                                     '1.3.6.1.4.1.40418.7.100.1.11.4.0' => 93
                                                                                                   }
                                                             },
                                'entPhysicalDescr' => {
                                                        '1.3.6.1.2.1.47.1.1.1.1.2' => {
                                                                                        '1.3.6.1.2.1.47.1.1.1.1.2.1' => 'NAG LLC chassis model SNR-S2990G-24FX'
                                                                                      }
                                                      },
                                'ifInErrors' => {
                                                  '1.3.6.1.2.1.2.2.1.14' => {
                                                                              '1.3.6.1.2.1.2.2.1.14.65' => 0,
                                                                              '1.3.6.1.2.1.2.2.1.14.11' => 35,
                                                                              '1.3.6.1.2.1.2.2.1.14.20' => 0,
                                                                              '1.3.6.1.2.1.2.2.1.14.18' => 0,
                                                                              '1.3.6.1.2.1.2.2.1.14.15' => 0,
                                                                              '1.3.6.1.2.1.2.2.1.14.17' => 0,
                                                                              '1.3.6.1.2.1.2.2.1.14.27' => 0,
                                                                              '1.3.6.1.2.1.2.2.1.14.28' => 0,
                                                                              '1.3.6.1.2.1.2.2.1.14.16' => 0,
                                                                              '1.3.6.1.2.1.2.2.1.14.7' => 0,
                                                                              '1.3.6.1.2.1.2.2.1.14.19' => 0,
                                                                              '1.3.6.1.2.1.2.2.1.14.21' => 1,
                                                                              '1.3.6.1.2.1.2.2.1.14.5' => 0,
                                                                              '1.3.6.1.2.1.2.2.1.14.10' => 0,
                                                                              '1.3.6.1.2.1.2.2.1.14.2' => 0,
                                                                              '1.3.6.1.2.1.2.2.1.14.22' => 0,
                                                                              '1.3.6.1.2.1.2.2.1.14.23' => 0,
                                                                              '1.3.6.1.2.1.2.2.1.14.26' => 0,
                                                                              '1.3.6.1.2.1.2.2.1.14.12' => 0,
                                                                              '1.3.6.1.2.1.2.2.1.14.9' => 4334,
                                                                              '1.3.6.1.2.1.2.2.1.14.24' => 0,
                                                                              '1.3.6.1.2.1.2.2.1.14.14' => 0,
                                                                              '1.3.6.1.2.1.2.2.1.14.6' => 0,
                                                                              '1.3.6.1.2.1.2.2.1.14.25' => 0,
                                                                              '1.3.6.1.2.1.2.2.1.14.3' => 0,
                                                                              '1.3.6.1.2.1.2.2.1.14.13' => 0,
                                                                              '1.3.6.1.2.1.2.2.1.14.4' => 0,
                                                                              '1.3.6.1.2.1.2.2.1.14.8' => 0,
                                                                              '1.3.6.1.2.1.2.2.1.14.14999' => 4370,
                                                                              '1.3.6.1.2.1.2.2.1.14.1' => 0
                                                                            }
                                                },
                                'sysName' => {
                                               '1.3.6.1.2.1.1.5' => {
                                                                      '1.3.6.1.2.1.1.5.0' => 'SNR-S2990G-24FX'
                                                                    }
                                             },
                                'sysDescr' => {
                                                '1.3.6.1.2.1.1.1' => {
                                                                       '1.3.6.1.2.1.1.1.0' => 'SNR-S2990G-24FX Device, Compiled Jan 09 17:26:07 2017
 SoftWare Version 7.0.3.5(R0102.0193)
 BootRom Version 7.1.41
 HardWare Version 1.0.1
  Serial No.: SW041710HB21000180
 Copyright (C) 2017 NAG LLC
 All rights reserved
'
                                                                     }
                                              },
                                'ifOperStatus' => {
                                                    '1.3.6.1.2.1.2.2.1.8' => {
                                                                               '1.3.6.1.2.1.2.2.1.8.14' => 1,
                                                                               '1.3.6.1.2.1.2.2.1.8.1' => 1,
                                                                               '1.3.6.1.2.1.2.2.1.8.12' => 1,
                                                                               '1.3.6.1.2.1.2.2.1.8.22' => 1,
                                                                               '1.3.6.1.2.1.2.2.1.8.20' => 1,
                                                                               '1.3.6.1.2.1.2.2.1.8.3' => 1,
                                                                               '1.3.6.1.2.1.2.2.1.8.7' => 1,
                                                                               '1.3.6.1.2.1.2.2.1.8.14999' => 1,
                                                                               '1.3.6.1.2.1.2.2.1.8.2' => 1,
                                                                               '1.3.6.1.2.1.2.2.1.8.27' => 2,
                                                                               '1.3.6.1.2.1.2.2.1.8.23' => 1,
                                                                               '1.3.6.1.2.1.2.2.1.8.8' => 1,
                                                                               '1.3.6.1.2.1.2.2.1.8.25' => 1,
                                                                               '1.3.6.1.2.1.2.2.1.8.4' => 1,
                                                                               '1.3.6.1.2.1.2.2.1.8.9' => 1,
                                                                               '1.3.6.1.2.1.2.2.1.8.15' => 1,
                                                                               '1.3.6.1.2.1.2.2.1.8.65' => 1,
                                                                               '1.3.6.1.2.1.2.2.1.8.21' => 1,
                                                                               '1.3.6.1.2.1.2.2.1.8.24' => 1,
                                                                               '1.3.6.1.2.1.2.2.1.8.19' => 1,
                                                                               '1.3.6.1.2.1.2.2.1.8.11' => 1,
                                                                               '1.3.6.1.2.1.2.2.1.8.6' => 1,
                                                                               '1.3.6.1.2.1.2.2.1.8.17' => 1,
                                                                               '1.3.6.1.2.1.2.2.1.8.10' => 1,
                                                                               '1.3.6.1.2.1.2.2.1.8.18' => 1,
                                                                               '1.3.6.1.2.1.2.2.1.8.5' => 1,
                                                                               '1.3.6.1.2.1.2.2.1.8.26' => 2,
                                                                               '1.3.6.1.2.1.2.2.1.8.16' => 1,
                                                                               '1.3.6.1.2.1.2.2.1.8.28' => 2,
                                                                               '1.3.6.1.2.1.2.2.1.8.13' => 1
                                                                             }
                                                  },
                                'ifInMulticastPkts' => {
                                                         '1.3.6.1.2.1.31.1.1.1.2' => {
                                                                                       '1.3.6.1.2.1.31.1.1.1.2.16' => 5087266,
                                                                                       '1.3.6.1.2.1.31.1.1.1.2.9' => 53936615,
                                                                                       '1.3.6.1.2.1.31.1.1.1.2.12' => 10375160,
                                                                                       '1.3.6.1.2.1.31.1.1.1.2.19' => 14389094,
                                                                                       '1.3.6.1.2.1.31.1.1.1.2.8' => 21134016,
                                                                                       '1.3.6.1.2.1.31.1.1.1.2.4' => 34789925,
                                                                                       '1.3.6.1.2.1.31.1.1.1.2.5' => 65629613,
                                                                                       '1.3.6.1.2.1.31.1.1.1.2.25' => 2308147945,
                                                                                       '1.3.6.1.2.1.31.1.1.1.2.13' => 7788131,
                                                                                       '1.3.6.1.2.1.31.1.1.1.2.1' => 3044040,
                                                                                       '1.3.6.1.2.1.31.1.1.1.2.17' => 4097178,
                                                                                       '1.3.6.1.2.1.31.1.1.1.2.26' => 0,
                                                                                       '1.3.6.1.2.1.31.1.1.1.2.10' => 617729,
                                                                                       '1.3.6.1.2.1.31.1.1.1.2.23' => 17135341,
                                                                                       '1.3.6.1.2.1.31.1.1.1.2.18' => 17015716,
                                                                                       '1.3.6.1.2.1.31.1.1.1.2.22' => 12176193,
                                                                                       '1.3.6.1.2.1.31.1.1.1.2.65' => 2308147945,
                                                                                       '1.3.6.1.2.1.31.1.1.1.2.6' => 7218075,
                                                                                       '1.3.6.1.2.1.31.1.1.1.2.28' => 0,
                                                                                       '1.3.6.1.2.1.31.1.1.1.2.14999' => 0,
                                                                                       '1.3.6.1.2.1.31.1.1.1.2.3' => 49101268,
                                                                                       '1.3.6.1.2.1.31.1.1.1.2.11' => 8967783,
                                                                                       '1.3.6.1.2.1.31.1.1.1.2.15' => 6799761,
                                                                                       '1.3.6.1.2.1.31.1.1.1.2.27' => 0,
                                                                                       '1.3.6.1.2.1.31.1.1.1.2.2' => 11876614,
                                                                                       '1.3.6.1.2.1.31.1.1.1.2.21' => 17709194,
                                                                                       '1.3.6.1.2.1.31.1.1.1.2.24' => 112726281,
                                                                                       '1.3.6.1.2.1.31.1.1.1.2.7' => 3857781,
                                                                                       '1.3.6.1.2.1.31.1.1.1.2.14' => 26935402,
                                                                                       '1.3.6.1.2.1.31.1.1.1.2.20' => 21012936
                                                                                     }
                                                       },
                                'switchCPUIdle' => {
                                                     '1.3.6.1.4.1.40418.7.100.1.11.5' => {
                                                                                           '1.3.6.1.4.1.40418.7.100.1.11.5.0' => 92
                                                                                         }
                                                   },
                                'ifAdminStatus' => {
                                                     '1.3.6.1.2.1.2.2.1.7' => {
                                                                                '1.3.6.1.2.1.2.2.1.7.21' => 1,
                                                                                '1.3.6.1.2.1.2.2.1.7.23' => 1,
                                                                                '1.3.6.1.2.1.2.2.1.7.4' => 1,
                                                                                '1.3.6.1.2.1.2.2.1.7.10' => 1,
                                                                                '1.3.6.1.2.1.2.2.1.7.17' => 1,
                                                                                '1.3.6.1.2.1.2.2.1.7.3' => 1,
                                                                                '1.3.6.1.2.1.2.2.1.7.18' => 1,
                                                                                '1.3.6.1.2.1.2.2.1.7.16' => 1,
                                                                                '1.3.6.1.2.1.2.2.1.7.14999' => 1,
                                                                                '1.3.6.1.2.1.2.2.1.7.2' => 1,
                                                                                '1.3.6.1.2.1.2.2.1.7.28' => 1,
                                                                                '1.3.6.1.2.1.2.2.1.7.13' => 1,
                                                                                '1.3.6.1.2.1.2.2.1.7.22' => 1,
                                                                                '1.3.6.1.2.1.2.2.1.7.14' => 1,
                                                                                '1.3.6.1.2.1.2.2.1.7.8' => 1,
                                                                                '1.3.6.1.2.1.2.2.1.7.9' => 1,
                                                                                '1.3.6.1.2.1.2.2.1.7.1' => 1,
                                                                                '1.3.6.1.2.1.2.2.1.7.5' => 1,
                                                                                '1.3.6.1.2.1.2.2.1.7.15' => 1,
                                                                                '1.3.6.1.2.1.2.2.1.7.25' => 1,
                                                                                '1.3.6.1.2.1.2.2.1.7.12' => 1,
                                                                                '1.3.6.1.2.1.2.2.1.7.26' => 1,
                                                                                '1.3.6.1.2.1.2.2.1.7.11' => 1,
                                                                                '1.3.6.1.2.1.2.2.1.7.19' => 1,
                                                                                '1.3.6.1.2.1.2.2.1.7.20' => 1,
                                                                                '1.3.6.1.2.1.2.2.1.7.7' => 1,
                                                                                '1.3.6.1.2.1.2.2.1.7.6' => 1,
                                                                                '1.3.6.1.2.1.2.2.1.7.24' => 1,
                                                                                '1.3.6.1.2.1.2.2.1.7.27' => 1,
                                                                                '1.3.6.1.2.1.2.2.1.7.65' => 1
                                                                              }
                                                   },
                                'entPhysicalSerialNum' => {
                                                            '1.3.6.1.2.1.47.1.1.1.1.11' => {
                                                                                             '1.3.6.1.2.1.47.1.1.1.1.11.1' => 'SW041710HB21000180'
                                                                                           }
                                                          },
                                'sysHardwareVersion' => {
                                                          '1.3.6.1.4.1.40418.7.100.1.2' => {
                                                                                             '1.3.6.1.4.1.40418.7.100.1.2.0' => '1.0.1'
                                                                                           }
                                                        },
                                'ifOutNUcastPkts' => {
                                                       '1.3.6.1.2.1.2.2.1.12' => {
                                                                                   '1.3.6.1.2.1.2.2.1.12.24' => 149420061,
                                                                                   '1.3.6.1.2.1.2.2.1.12.13' => 14092953,
                                                                                   '1.3.6.1.2.1.2.2.1.12.22' => 21498587,
                                                                                   '1.3.6.1.2.1.2.2.1.12.5' => 82226007,
                                                                                   '1.3.6.1.2.1.2.2.1.12.27' => 0,
                                                                                   '1.3.6.1.2.1.2.2.1.12.7' => 4746684,
                                                                                   '1.3.6.1.2.1.2.2.1.12.14' => 32837422,
                                                                                   '1.3.6.1.2.1.2.2.1.12.2' => 15652453,
                                                                                   '1.3.6.1.2.1.2.2.1.12.4' => 38153211,
                                                                                   '1.3.6.1.2.1.2.2.1.12.20' => 30046802,
                                                                                   '1.3.6.1.2.1.2.2.1.12.28' => 0,
                                                                                   '1.3.6.1.2.1.2.2.1.12.17' => 9963675,
                                                                                   '1.3.6.1.2.1.2.2.1.12.3' => 57243575,
                                                                                   '1.3.6.1.2.1.2.2.1.12.9' => 85571678,
                                                                                   '1.3.6.1.2.1.2.2.1.12.19' => 18133710,
                                                                                   '1.3.6.1.2.1.2.2.1.12.11' => 31268202,
                                                                                   '1.3.6.1.2.1.2.2.1.12.12' => 30102479,
                                                                                   '1.3.6.1.2.1.2.2.1.12.14999' => 0,
                                                                                   '1.3.6.1.2.1.2.2.1.12.23' => 21666240,
                                                                                   '1.3.6.1.2.1.2.2.1.12.18' => 19394542,
                                                                                   '1.3.6.1.2.1.2.2.1.12.15' => 8122136,
                                                                                   '1.3.6.1.2.1.2.2.1.12.25' => 2809019543,
                                                                                   '1.3.6.1.2.1.2.2.1.12.10' => 3448639,
                                                                                   '1.3.6.1.2.1.2.2.1.12.65' => 2809019543,
                                                                                   '1.3.6.1.2.1.2.2.1.12.16' => 16312816,
                                                                                   '1.3.6.1.2.1.2.2.1.12.6' => 15548523,
                                                                                   '1.3.6.1.2.1.2.2.1.12.26' => 0,
                                                                                   '1.3.6.1.2.1.2.2.1.12.1' => 5516730,
                                                                                   '1.3.6.1.2.1.2.2.1.12.8' => 27908854,
                                                                                   '1.3.6.1.2.1.2.2.1.12.21' => 24981088
                                                                                 }
                                                     },
                                'ifOutBroadcastPkts' => {
                                                          '1.3.6.1.2.1.31.1.1.1.5' => {
                                                                                        '1.3.6.1.2.1.31.1.1.1.5.22' => 350635075,
                                                                                        '1.3.6.1.2.1.31.1.1.1.5.24' => 365729175,
                                                                                        '1.3.6.1.2.1.31.1.1.1.5.1' => 440436860,
                                                                                        '1.3.6.1.2.1.31.1.1.1.5.12' => 365482319,
                                                                                        '1.3.6.1.2.1.31.1.1.1.5.4' => 351225381,
                                                                                        '1.3.6.1.2.1.31.1.1.1.5.13' => 376611767,
                                                                                        '1.3.6.1.2.1.31.1.1.1.5.26' => 0,
                                                                                        '1.3.6.1.2.1.31.1.1.1.5.3' => 353360279,
                                                                                        '1.3.6.1.2.1.31.1.1.1.5.18' => 351384744,
                                                                                        '1.3.6.1.2.1.31.1.1.1.5.21' => 381836974,
                                                                                        '1.3.6.1.2.1.31.1.1.1.5.19' => 351019429,
                                                                                        '1.3.6.1.2.1.31.1.1.1.5.20' => 356004531,
                                                                                        '1.3.6.1.2.1.31.1.1.1.5.25' => 229474789,
                                                                                        '1.3.6.1.2.1.31.1.1.1.5.15' => 383188090,
                                                                                        '1.3.6.1.2.1.31.1.1.1.5.9' => 415296492,
                                                                                        '1.3.6.1.2.1.31.1.1.1.5.7' => 351308217,
                                                                                        '1.3.6.1.2.1.31.1.1.1.5.14999' => 0,
                                                                                        '1.3.6.1.2.1.31.1.1.1.5.16' => 374998945,
                                                                                        '1.3.6.1.2.1.31.1.1.1.5.23' => 350533166,
                                                                                        '1.3.6.1.2.1.31.1.1.1.5.65' => 229474789,
                                                                                        '1.3.6.1.2.1.31.1.1.1.5.8' => 385810076,
                                                                                        '1.3.6.1.2.1.31.1.1.1.5.17' => 374532527,
                                                                                        '1.3.6.1.2.1.31.1.1.1.5.14' => 368314005,
                                                                                        '1.3.6.1.2.1.31.1.1.1.5.27' => 0,
                                                                                        '1.3.6.1.2.1.31.1.1.1.5.6' => 351069304,
                                                                                        '1.3.6.1.2.1.31.1.1.1.5.10' => 351029234,
                                                                                        '1.3.6.1.2.1.31.1.1.1.5.2' => 441428738,
                                                                                        '1.3.6.1.2.1.31.1.1.1.5.5' => 376862462,
                                                                                        '1.3.6.1.2.1.31.1.1.1.5.11' => 351616983,
                                                                                        '1.3.6.1.2.1.31.1.1.1.5.28' => 0
                                                                                      }
                                                        },
                                'switchTemperature' => {
                                                         '1.3.6.1.4.1.40418.7.100.1.11.9' => {
                                                                                               '1.3.6.1.4.1.40418.7.100.1.11.9.0' => 33
                                                                                             }
                                                       }
                              }
          };
